[
    {
        "sport": "Alpine-skiing",
        "nations": [
            {
                "country": "Austria",
                "medals": {
                    "gold": 40,
                    "silver": 44,
                    "bronze": 44
                }
            },
            {
                "country": "Switzerland",
                "medals": {
                    "gold": 27,
                    "silver": 23,
                    "bronze": 25
                }
            },
            {
                "country": "United States Of America",
                "medals": {
                    "gold": 17,
                    "silver": 21,
                    "bronze": 10
                }
            },
            {
                "country": "Germany",
                "medals": {
                    "gold": 17,
                    "silver": 14,
                    "bronze": 10
                }
            },
            {
                "country": "France",
                "medals": {
                    "gold": 16,
                    "silver": 17,
                    "bronze": 18
                }
            },
            {
                "country": "Italy",
                "medals": {
                    "gold": 14,
                    "silver": 11,
                    "bronze": 11
                }
            },
            {
                "country": "Norway",
                "medals": {
                    "gold": 11,
                    "silver": 14,
                    "bronze": 15
                }
            },
            {
                "country": "Sweden",
                "medals": {
                    "gold": 8,
                    "silver": 2,
                    "bronze": 9
                }
            }
        ]
    },
    {
        "sport": "Archery",
        "nations": [
            {
                "country": "South Korea",
                "medals": {
                    "gold": 27,
                    "silver": 9,
                    "bronze": 7
                }
            },
            {
                "country": "United States Of America",
                "medals": {
                    "gold": 14,
                    "silver": 11,
                    "bronze": 9
                }
            },
            {
                "country": "Belgium",
                "medals": {
                    "gold": 11,
                    "silver": 7,
                    "bronze": 3
                }
            },
            {
                "country": "France",
                "medals": {
                    "gold": 7,
                    "silver": 11,
                    "bronze": 7
                }
            },
            {
                "country": "Italy",
                "medals": {
                    "gold": 2,
                    "silver": 3,
                    "bronze": 4
                }
            },
            {
                "country": "Great Britain",
                "medals": {
                    "gold": 2,
                    "silver": 2,
                    "bronze": 5
                }
            },
            {
                "country": "China",
                "medals": {
                    "gold": 1,
                    "silver": 6,
                    "bronze": 2
                }
            },
            {
                "country": "Russia",
                "medals": {
                    "gold": 1,
                    "silver": 4,
                    "bronze": 6
                }
            }
        ]
    },
    {
        "sport": "Athletics",
        "nations": [
            {
                "country": "United States Of America",
                "medals": {
                    "gold": 355,
                    "silver": 275,
                    "bronze": 220
                }
            },
            {
                "country": "Russia",
                "medals": {
                    "gold": 89,
                    "silver": 87,
                    "bronze": 97
                }
            },
            {
                "country": "Germany",
                "medals": {
                    "gold": 73,
                    "silver": 96,
                    "bronze": 98
                }
            },
            {
                "country": "Great Britain",
                "medals": {
                    "gold": 57,
                    "silver": 87,
                    "bronze": 72
                }
            },
            {
                "country": "Finland",
                "medals": {
                    "gold": 49,
                    "silver": 36,
                    "bronze": 31
                }
            },
            {
                "country": "Kenya",
                "medals": {
                    "gold": 34,
                    "silver": 41,
                    "bronze": 31
                }
            },
            {
                "country": "Poland",
                "medals": {
                    "gold": 29,
                    "silver": 20,
                    "bronze": 17
                }
            },
            {
                "country": "Jamaica",
                "medals": {
                    "gold": 26,
                    "silver": 36,
                    "bronze": 25
                }
            }
        ]
    },
    {
        "sport": "Badminton",
        "nations": [
            {
                "country": "China",
                "medals": {
                    "gold": 20,
                    "silver": 12,
                    "bronze": 15
                }
            },
            {
                "country": "Indonesia",
                "medals": {
                    "gold": 8,
                    "silver": 6,
                    "bronze": 7
                }
            },
            {
                "country": "South Korea",
                "medals": {
                    "gold": 6,
                    "silver": 7,
                    "bronze": 7
                }
            },
            {
                "country": "Denmark",
                "medals": {
                    "gold": 2,
                    "silver": 3,
                    "bronze": 4
                }
            },
            {
                "country": "Japan",
                "medals": {
                    "gold": 1,
                    "silver": 1,
                    "bronze": 2
                }
            },
            {
                "country": "Chinese Taipei",
                "medals": {
                    "gold": 1,
                    "silver": 1,
                    "bronze": 0
                }
            },
            {
                "country": "Spain",
                "medals": {
                    "gold": 1,
                    "silver": 0,
                    "bronze": 0
                }
            },
            {
                "country": "Malaysia",
                "medals": {
                    "gold": 0,
                    "silver": 6,
                    "bronze": 3
                }
            }
        ]
    },
    {
        "sport": "Baseball",
        "nations": [
            {
                "country": "Cuba",
                "medals": {
                    "gold": 3,
                    "silver": 2,
                    "bronze": 0
                }
            },
            {
                "country": "Japan",
                "medals": {
                    "gold": 1,
                    "silver": 1,
                    "bronze": 2
                }
            },
            {
                "country": "United States Of America",
                "medals": {
                    "gold": 1,
                    "silver": 1,
                    "bronze": 2
                }
            },
            {
                "country": "South Korea",
                "medals": {
                    "gold": 1,
                    "silver": 0,
                    "bronze": 1
                }
            },
            {
                "country": "Australia",
                "medals": {
                    "gold": 0,
                    "silver": 1,
                    "bronze": 0
                }
            },
            {
                "country": "Chinese Taipei",
                "medals": {
                    "gold": 0,
                    "silver": 1,
                    "bronze": 0
                }
            },
            {
                "country": "Dominican Republic",
                "medals": {
                    "gold": 0,
                    "silver": 0,
                    "bronze": 1
                }
            }
        ]
    },
    {
        "sport": "Basketball",
        "nations": [
            {
                "country": "United States Of America",
                "medals": {
                    "gold": 26,
                    "silver": 2,
                    "bronze": 3
                }
            },
            {
                "country": "Russia",
                "medals": {
                    "gold": 5,
                    "silver": 4,
                    "bronze": 7
                }
            },
            {
                "country": "Yugoslavia",
                "medals": {
                    "gold": 1,
                    "silver": 5,
                    "bronze": 2
                }
            },
            {
                "country": "Argentina",
                "medals": {
                    "gold": 1,
                    "silver": 0,
                    "bronze": 1
                }
            },
            {
                "country": "Latvia",
                "medals": {
                    "gold": 1,
                    "silver": 0,
                    "bronze": 0
                }
            },
            {
                "country": "France",
                "medals": {
                    "gold": 0,
                    "silver": 4,
                    "bronze": 1
                }
            },
            {
                "country": "Spain",
                "medals": {
                    "gold": 0,
                    "silver": 4,
                    "bronze": 1
                }
            },
            {
                "country": "Australia",
                "medals": {
                    "gold": 0,
                    "silver": 3,
                    "bronze": 3
                }
            }
        ]
    },
    {
        "sport": "Beachvolleyball",
        "nations": [
            {
                "country": "United States Of America",
                "medals": {
                    "gold": 7,
                    "silver": 2,
                    "bronze": 2
                }
            },
            {
                "country": "Brazil",
                "medals": {
                    "gold": 3,
                    "silver": 7,
                    "bronze": 3
                }
            },
            {
                "country": "Germany",
                "medals": {
                    "gold": 2,
                    "silver": 0,
                    "bronze": 1
                }
            },
            {
                "country": "Australia",
                "medals": {
                    "gold": 1,
                    "silver": 1,
                    "bronze": 1
                }
            },
            {
                "country": "Norway",
                "medals": {
                    "gold": 1,
                    "silver": 0,
                    "bronze": 0
                }
            },
            {
                "country": "China",
                "medals": {
                    "gold": 0,
                    "silver": 1,
                    "bronze": 1
                }
            },
            {
                "country": "Italy",
                "medals": {
                    "gold": 0,
                    "silver": 1,
                    "bronze": 0
                }
            },
            {
                "country": "Russian Olympic Commitee",
                "medals": {
                    "gold": 0,
                    "silver": 1,
                    "bronze": 0
                }
            }
        ]
    },
    {
        "sport": "Biathlon",
        "nations": [
            {
                "country": "Germany",
                "medals": {
                    "gold": 24,
                    "silver": 27,
                    "bronze": 19
                }
            },
            {
                "country": "Norway",
                "medals": {
                    "gold": 22,
                    "silver": 18,
                    "bronze": 15
                }
            },
            {
                "country": "Russia",
                "medals": {
                    "gold": 20,
                    "silver": 12,
                    "bronze": 15
                }
            },
            {
                "country": "France",
                "medals": {
                    "gold": 12,
                    "silver": 9,
                    "bronze": 12
                }
            },
            {
                "country": "Sweden",
                "medals": {
                    "gold": 6,
                    "silver": 6,
                    "bronze": 6
                }
            },
            {
                "country": "Belarus",
                "medals": {
                    "gold": 4,
                    "silver": 4,
                    "bronze": 3
                }
            },
            {
                "country": "Slovakia",
                "medals": {
                    "gold": 3,
                    "silver": 3,
                    "bronze": 1
                }
            },
            {
                "country": "Canada",
                "medals": {
                    "gold": 2,
                    "silver": 0,
                    "bronze": 1
                }
            }
        ]
    },
    {
        "sport": "Bobsledding",
        "nations": [
            {
                "country": "Germany",
                "medals": {
                    "gold": 22,
                    "silver": 17,
                    "bronze": 12
                }
            },
            {
                "country": "Switzerland",
                "medals": {
                    "gold": 10,
                    "silver": 10,
                    "bronze": 11
                }
            },
            {
                "country": "United States Of America",
                "medals": {
                    "gold": 8,
                    "silver": 11,
                    "bronze": 9
                }
            },
            {
                "country": "Canada",
                "medals": {
                    "gold": 5,
                    "silver": 2,
                    "bronze": 4
                }
            },
            {
                "country": "Italy",
                "medals": {
                    "gold": 4,
                    "silver": 4,
                    "bronze": 4
                }
            },
            {
                "country": "Austria",
                "medals": {
                    "gold": 1,
                    "silver": 2,
                    "bronze": 0
                }
            },
            {
                "country": "Great Britain",
                "medals": {
                    "gold": 1,
                    "silver": 1,
                    "bronze": 3
                }
            },
            {
                "country": "Russia",
                "medals": {
                    "gold": 1,
                    "silver": 1,
                    "bronze": 3
                }
            }
        ]
    },
    {
        "sport": "Boxing",
        "nations": [
            {
                "country": "United States Of America",
                "medals": {
                    "gold": 50,
                    "silver": 27,
                    "bronze": 40
                }
            },
            {
                "country": "Cuba",
                "medals": {
                    "gold": 41,
                    "silver": 19,
                    "bronze": 18
                }
            },
            {
                "country": "Russia",
                "medals": {
                    "gold": 24,
                    "silver": 25,
                    "bronze": 34
                }
            },
            {
                "country": "Great Britain",
                "medals": {
                    "gold": 20,
                    "silver": 15,
                    "bronze": 27
                }
            },
            {
                "country": "Italy",
                "medals": {
                    "gold": 15,
                    "silver": 15,
                    "bronze": 18
                }
            },
            {
                "country": "Germany",
                "medals": {
                    "gold": 11,
                    "silver": 14,
                    "bronze": 23
                }
            },
            {
                "country": "Hungary",
                "medals": {
                    "gold": 10,
                    "silver": 2,
                    "bronze": 8
                }
            },
            {
                "country": "Poland",
                "medals": {
                    "gold": 8,
                    "silver": 9,
                    "bronze": 26
                }
            }
        ]
    },
    {
        "sport": "Breaking",
        "nations": []
    },
    {
        "sport": "Canoe-&-kayaking",
        "nations": [
            {
                "country": "Germany",
                "medals": {
                    "gold": 54,
                    "silver": 37,
                    "bronze": 38
                }
            },
            {
                "country": "Russia",
                "medals": {
                    "gold": 32,
                    "silver": 18,
                    "bronze": 16
                }
            },
            {
                "country": "Hungary",
                "medals": {
                    "gold": 28,
                    "silver": 31,
                    "bronze": 27
                }
            },
            {
                "country": "Sweden",
                "medals": {
                    "gold": 15,
                    "silver": 11,
                    "bronze": 4
                }
            },
            {
                "country": "Romania",
                "medals": {
                    "gold": 10,
                    "silver": 10,
                    "bronze": 14
                }
            },
            {
                "country": "New Zealand",
                "medals": {
                    "gold": 10,
                    "silver": 3,
                    "bronze": 2
                }
            },
            {
                "country": "France",
                "medals": {
                    "gold": 8,
                    "silver": 9,
                    "bronze": 19
                }
            },
            {
                "country": "Slovakia",
                "medals": {
                    "gold": 8,
                    "silver": 7,
                    "bronze": 5
                }
            }
        ]
    },
    {
        "sport": "Cross-country-skiing",
        "nations": [
            {
                "country": "Norway",
                "medals": {
                    "gold": 52,
                    "silver": 43,
                    "bronze": 34
                }
            },
            {
                "country": "Russia",
                "medals": {
                    "gold": 42,
                    "silver": 34,
                    "bronze": 34
                }
            },
            {
                "country": "Sweden",
                "medals": {
                    "gold": 32,
                    "silver": 27,
                    "bronze": 25
                }
            },
            {
                "country": "Finland",
                "medals": {
                    "gold": 22,
                    "silver": 27,
                    "bronze": 37
                }
            },
            {
                "country": "Italy",
                "medals": {
                    "gold": 9,
                    "silver": 14,
                    "bronze": 13
                }
            },
            {
                "country": "Germany",
                "medals": {
                    "gold": 5,
                    "silver": 11,
                    "bronze": 5
                }
            },
            {
                "country": "Russian Olympic Commitee",
                "medals": {
                    "gold": 4,
                    "silver": 7,
                    "bronze": 8
                }
            },
            {
                "country": "Estonia",
                "medals": {
                    "gold": 4,
                    "silver": 2,
                    "bronze": 1
                }
            }
        ]
    },
    {
        "sport": "Curling",
        "nations": [
            {
                "country": "Canada",
                "medals": {
                    "gold": 6,
                    "silver": 3,
                    "bronze": 3
                }
            },
            {
                "country": "Sweden",
                "medals": {
                    "gold": 4,
                    "silver": 3,
                    "bronze": 4
                }
            },
            {
                "country": "Great Britain",
                "medals": {
                    "gold": 3,
                    "silver": 2,
                    "bronze": 1
                }
            },
            {
                "country": "Switzerland",
                "medals": {
                    "gold": 1,
                    "silver": 3,
                    "bronze": 3
                }
            },
            {
                "country": "Norway",
                "medals": {
                    "gold": 1,
                    "silver": 2,
                    "bronze": 2
                }
            },
            {
                "country": "United States Of America",
                "medals": {
                    "gold": 1,
                    "silver": 0,
                    "bronze": 1
                }
            },
            {
                "country": "Italy",
                "medals": {
                    "gold": 1,
                    "silver": 0,
                    "bronze": 0
                }
            },
            {
                "country": "Japan",
                "medals": {
                    "gold": 0,
                    "silver": 1,
                    "bronze": 1
                }
            }
        ]
    },
    {
        "sport": "Cycling",
        "nations": [
            {
                "country": "France",
                "medals": {
                    "gold": 42,
                    "silver": 28,
                    "bronze": 29
                }
            },
            {
                "country": "Great Britain",
                "medals": {
                    "gold": 40,
                    "silver": 38,
                    "bronze": 27
                }
            },
            {
                "country": "Italy",
                "medals": {
                    "gold": 37,
                    "silver": 16,
                    "bronze": 12
                }
            },
            {
                "country": "Germany",
                "medals": {
                    "gold": 26,
                    "silver": 31,
                    "bronze": 28
                }
            },
            {
                "country": "Netherlands",
                "medals": {
                    "gold": 23,
                    "silver": 22,
                    "bronze": 16
                }
            },
            {
                "country": "United States Of America",
                "medals": {
                    "gold": 17,
                    "silver": 22,
                    "bronze": 21
                }
            },
            {
                "country": "Russia",
                "medals": {
                    "gold": 16,
                    "silver": 9,
                    "bronze": 18
                }
            },
            {
                "country": "Australia",
                "medals": {
                    "gold": 15,
                    "silver": 19,
                    "bronze": 20
                }
            }
        ]
    },
    {
        "sport": "Diving",
        "nations": [
            {
                "country": "United States Of America",
                "medals": {
                    "gold": 48,
                    "silver": 45,
                    "bronze": 45
                }
            },
            {
                "country": "China",
                "medals": {
                    "gold": 47,
                    "silver": 24,
                    "bronze": 10
                }
            },
            {
                "country": "Russia",
                "medals": {
                    "gold": 8,
                    "silver": 14,
                    "bronze": 13
                }
            },
            {
                "country": "Germany",
                "medals": {
                    "gold": 8,
                    "silver": 12,
                    "bronze": 15
                }
            },
            {
                "country": "Sweden",
                "medals": {
                    "gold": 6,
                    "silver": 8,
                    "bronze": 7
                }
            },
            {
                "country": "Italy",
                "medals": {
                    "gold": 3,
                    "silver": 5,
                    "bronze": 3
                }
            },
            {
                "country": "Australia",
                "medals": {
                    "gold": 3,
                    "silver": 3,
                    "bronze": 8
                }
            },
            {
                "country": "Great Britain",
                "medals": {
                    "gold": 2,
                    "silver": 3,
                    "bronze": 8
                }
            }
        ]
    },
    {
        "sport": "Equestrian",
        "nations": [
            {
                "country": "Germany",
                "medals": {
                    "gold": 44,
                    "silver": 24,
                    "bronze": 27
                }
            },
            {
                "country": "Sweden",
                "medals": {
                    "gold": 18,
                    "silver": 13,
                    "bronze": 14
                }
            },
            {
                "country": "France",
                "medals": {
                    "gold": 14,
                    "silver": 13,
                    "bronze": 11
                }
            },
            {
                "country": "Great Britain",
                "medals": {
                    "gold": 13,
                    "silver": 12,
                    "bronze": 15
                }
            },
            {
                "country": "United States Of America",
                "medals": {
                    "gold": 11,
                    "silver": 23,
                    "bronze": 20
                }
            },
            {
                "country": "Netherlands",
                "medals": {
                    "gold": 10,
                    "silver": 13,
                    "bronze": 4
                }
            },
            {
                "country": "Italy",
                "medals": {
                    "gold": 7,
                    "silver": 9,
                    "bronze": 7
                }
            },
            {
                "country": "Russia",
                "medals": {
                    "gold": 6,
                    "silver": 5,
                    "bronze": 4
                }
            }
        ]
    },
    {
        "sport": "Fencing",
        "nations": [
            {
                "country": "Italy",
                "medals": {
                    "gold": 49,
                    "silver": 47,
                    "bronze": 36
                }
            },
            {
                "country": "France",
                "medals": {
                    "gold": 47,
                    "silver": 44,
                    "bronze": 37
                }
            },
            {
                "country": "Hungary",
                "medals": {
                    "gold": 38,
                    "silver": 24,
                    "bronze": 29
                }
            },
            {
                "country": "Russia",
                "medals": {
                    "gold": 32,
                    "silver": 22,
                    "bronze": 26
                }
            },
            {
                "country": "Germany",
                "medals": {
                    "gold": 15,
                    "silver": 19,
                    "bronze": 12
                }
            },
            {
                "country": "China",
                "medals": {
                    "gold": 5,
                    "silver": 7,
                    "bronze": 3
                }
            },
            {
                "country": "South Korea",
                "medals": {
                    "gold": 5,
                    "silver": 3,
                    "bronze": 8
                }
            },
            {
                "country": "Belgium",
                "medals": {
                    "gold": 5,
                    "silver": 3,
                    "bronze": 5
                }
            }
        ]
    },
    {
        "sport": "Figure-skating",
        "nations": [
            {
                "country": "Russia",
                "medals": {
                    "gold": 28,
                    "silver": 19,
                    "bronze": 9
                }
            },
            {
                "country": "United States Of America",
                "medals": {
                    "gold": 16,
                    "silver": 17,
                    "bronze": 21
                }
            },
            {
                "country": "Germany",
                "medals": {
                    "gold": 8,
                    "silver": 7,
                    "bronze": 9
                }
            },
            {
                "country": "Austria",
                "medals": {
                    "gold": 7,
                    "silver": 9,
                    "bronze": 4
                }
            },
            {
                "country": "Canada",
                "medals": {
                    "gold": 6,
                    "silver": 11,
                    "bronze": 12
                }
            },
            {
                "country": "Great Britain",
                "medals": {
                    "gold": 5,
                    "silver": 3,
                    "bronze": 7
                }
            },
            {
                "country": "Sweden",
                "medals": {
                    "gold": 5,
                    "silver": 3,
                    "bronze": 2
                }
            },
            {
                "country": "France",
                "medals": {
                    "gold": 4,
                    "silver": 3,
                    "bronze": 7
                }
            }
        ]
    },
    {
        "sport": "Football",
        "nations": [
            {
                "country": "United States Of America",
                "medals": {
                    "gold": 4,
                    "silver": 2,
                    "bronze": 2
                }
            },
            {
                "country": "Hungary",
                "medals": {
                    "gold": 3,
                    "silver": 1,
                    "bronze": 1
                }
            },
            {
                "country": "Great Britain",
                "medals": {
                    "gold": 3,
                    "silver": 0,
                    "bronze": 0
                }
            },
            {
                "country": "Brazil",
                "medals": {
                    "gold": 2,
                    "silver": 5,
                    "bronze": 2
                }
            },
            {
                "country": "Germany",
                "medals": {
                    "gold": 2,
                    "silver": 2,
                    "bronze": 6
                }
            },
            {
                "country": "Argentina",
                "medals": {
                    "gold": 2,
                    "silver": 2,
                    "bronze": 0
                }
            },
            {
                "country": "Russia",
                "medals": {
                    "gold": 2,
                    "silver": 0,
                    "bronze": 3
                }
            },
            {
                "country": "Canada",
                "medals": {
                    "gold": 2,
                    "silver": 0,
                    "bronze": 2
                }
            }
        ]
    },
    {
        "sport": "Freestyle-skiing",
        "nations": [
            {
                "country": "Canada",
                "medals": {
                    "gold": 12,
                    "silver": 12,
                    "bronze": 6
                }
            },
            {
                "country": "United States Of America",
                "medals": {
                    "gold": 11,
                    "silver": 13,
                    "bronze": 9
                }
            },
            {
                "country": "Switzerland",
                "medals": {
                    "gold": 6,
                    "silver": 3,
                    "bronze": 4
                }
            },
            {
                "country": "China",
                "medals": {
                    "gold": 5,
                    "silver": 8,
                    "bronze": 4
                }
            },
            {
                "country": "Australia",
                "medals": {
                    "gold": 4,
                    "silver": 3,
                    "bronze": 2
                }
            },
            {
                "country": "Norway",
                "medals": {
                    "gold": 4,
                    "silver": 2,
                    "bronze": 4
                }
            },
            {
                "country": "Belarus",
                "medals": {
                    "gold": 4,
                    "silver": 2,
                    "bronze": 2
                }
            },
            {
                "country": "France",
                "medals": {
                    "gold": 3,
                    "silver": 6,
                    "bronze": 6
                }
            }
        ]
    },
    {
        "sport": "Golf",
        "nations": [
            {
                "country": "United States Of America",
                "medals": {
                    "gold": 5,
                    "silver": 3,
                    "bronze": 5
                }
            },
            {
                "country": "Great Britain",
                "medals": {
                    "gold": 1,
                    "silver": 1,
                    "bronze": 1
                }
            },
            {
                "country": "Canada",
                "medals": {
                    "gold": 1,
                    "silver": 0,
                    "bronze": 0
                }
            },
            {
                "country": "South Korea",
                "medals": {
                    "gold": 1,
                    "silver": 0,
                    "bronze": 0
                }
            },
            {
                "country": "New Zealand",
                "medals": {
                    "gold": 0,
                    "silver": 1,
                    "bronze": 1
                }
            },
            {
                "country": "Japan",
                "medals": {
                    "gold": 0,
                    "silver": 1,
                    "bronze": 0
                }
            },
            {
                "country": "Slovakia",
                "medals": {
                    "gold": 0,
                    "silver": 1,
                    "bronze": 0
                }
            },
            {
                "country": "Sweden",
                "medals": {
                    "gold": 0,
                    "silver": 1,
                    "bronze": 0
                }
            }
        ]
    },
    {
        "sport": "Gymnastics",
        "nations": [
            {
                "country": "Russia",
                "medals": {
                    "gold": 91,
                    "silver": 87,
                    "bronze": 66
                }
            },
            {
                "country": "United States Of America",
                "medals": {
                    "gold": 37,
                    "silver": 43,
                    "bronze": 37
                }
            },
            {
                "country": "Japan",
                "medals": {
                    "gold": 33,
                    "silver": 34,
                    "bronze": 36
                }
            },
            {
                "country": "China",
                "medals": {
                    "gold": 29,
                    "silver": 21,
                    "bronze": 19
                }
            },
            {
                "country": "Romania",
                "medals": {
                    "gold": 25,
                    "silver": 20,
                    "bronze": 26
                }
            },
            {
                "country": "Germany",
                "medals": {
                    "gold": 20,
                    "silver": 26,
                    "bronze": 33
                }
            },
            {
                "country": "Switzerland",
                "medals": {
                    "gold": 16,
                    "silver": 19,
                    "bronze": 14
                }
            },
            {
                "country": "Hungary",
                "medals": {
                    "gold": 15,
                    "silver": 12,
                    "bronze": 14
                }
            }
        ]
    },
    {
        "sport": "Handball",
        "nations": [
            {
                "country": "Russia",
                "medals": {
                    "gold": 7,
                    "silver": 2,
                    "bronze": 3
                }
            },
            {
                "country": "France",
                "medals": {
                    "gold": 4,
                    "silver": 2,
                    "bronze": 1
                }
            },
            {
                "country": "Denmark",
                "medals": {
                    "gold": 4,
                    "silver": 1,
                    "bronze": 0
                }
            },
            {
                "country": "Yugoslavia",
                "medals": {
                    "gold": 3,
                    "silver": 1,
                    "bronze": 1
                }
            },
            {
                "country": "South Korea",
                "medals": {
                    "gold": 2,
                    "silver": 4,
                    "bronze": 1
                }
            },
            {
                "country": "Germany",
                "medals": {
                    "gold": 2,
                    "silver": 3,
                    "bronze": 2
                }
            },
            {
                "country": "Norway",
                "medals": {
                    "gold": 2,
                    "silver": 2,
                    "bronze": 3
                }
            },
            {
                "country": "Croatia",
                "medals": {
                    "gold": 2,
                    "silver": 0,
                    "bronze": 1
                }
            }
        ]
    },
    {
        "sport": "Hockey",
        "nations": [
            {
                "country": "India",
                "medals": {
                    "gold": 8,
                    "silver": 1,
                    "bronze": 3
                }
            },
            {
                "country": "Netherlands",
                "medals": {
                    "gold": 6,
                    "silver": 6,
                    "bronze": 6
                }
            },
            {
                "country": "Germany",
                "medals": {
                    "gold": 5,
                    "silver": 5,
                    "bronze": 5
                }
            },
            {
                "country": "Australia",
                "medals": {
                    "gold": 4,
                    "silver": 4,
                    "bronze": 5
                }
            },
            {
                "country": "Great Britain",
                "medals": {
                    "gold": 4,
                    "silver": 2,
                    "bronze": 7
                }
            },
            {
                "country": "Pakistan",
                "medals": {
                    "gold": 3,
                    "silver": 3,
                    "bronze": 2
                }
            },
            {
                "country": "Argentina",
                "medals": {
                    "gold": 1,
                    "silver": 3,
                    "bronze": 2
                }
            },
            {
                "country": "Spain",
                "medals": {
                    "gold": 1,
                    "silver": 3,
                    "bronze": 1
                }
            }
        ]
    },
    {
        "sport": "Ice-hockey",
        "nations": [
            {
                "country": "Canada",
                "medals": {
                    "gold": 14,
                    "silver": 6,
                    "bronze": 3
                }
            },
            {
                "country": "Russia",
                "medals": {
                    "gold": 8,
                    "silver": 2,
                    "bronze": 2
                }
            },
            {
                "country": "United States Of America",
                "medals": {
                    "gold": 4,
                    "silver": 12,
                    "bronze": 2
                }
            },
            {
                "country": "Sweden",
                "medals": {
                    "gold": 2,
                    "silver": 4,
                    "bronze": 5
                }
            },
            {
                "country": "Finland",
                "medals": {
                    "gold": 1,
                    "silver": 2,
                    "bronze": 8
                }
            },
            {
                "country": "Russian Olympic Commitee",
                "medals": {
                    "gold": 1,
                    "silver": 1,
                    "bronze": 0
                }
            },
            {
                "country": "Czech Republic",
                "medals": {
                    "gold": 1,
                    "silver": 0,
                    "bronze": 1
                }
            },
            {
                "country": "Great Britain",
                "medals": {
                    "gold": 1,
                    "silver": 0,
                    "bronze": 1
                }
            }
        ]
    },
    {
        "sport": "Judo",
        "nations": [
            {
                "country": "Japan",
                "medals": {
                    "gold": 48,
                    "silver": 21,
                    "bronze": 27
                }
            },
            {
                "country": "France",
                "medals": {
                    "gold": 16,
                    "silver": 13,
                    "bronze": 28
                }
            },
            {
                "country": "Russia",
                "medals": {
                    "gold": 12,
                    "silver": 9,
                    "bronze": 22
                }
            },
            {
                "country": "South Korea",
                "medals": {
                    "gold": 11,
                    "silver": 17,
                    "bronze": 18
                }
            },
            {
                "country": "China",
                "medals": {
                    "gold": 8,
                    "silver": 3,
                    "bronze": 11
                }
            },
            {
                "country": "Cuba",
                "medals": {
                    "gold": 6,
                    "silver": 15,
                    "bronze": 16
                }
            },
            {
                "country": "Germany",
                "medals": {
                    "gold": 5,
                    "silver": 10,
                    "bronze": 25
                }
            },
            {
                "country": "Georgia",
                "medals": {
                    "gold": 4,
                    "silver": 5,
                    "bronze": 3
                }
            }
        ]
    },
    {
        "sport": "Karate",
        "nations": [
            {
                "country": "Japan",
                "medals": {
                    "gold": 1,
                    "silver": 1,
                    "bronze": 1
                }
            },
            {
                "country": "Spain",
                "medals": {
                    "gold": 1,
                    "silver": 1,
                    "bronze": 0
                }
            },
            {
                "country": "Egypt",
                "medals": {
                    "gold": 1,
                    "silver": 0,
                    "bronze": 1
                }
            },
            {
                "country": "Italy",
                "medals": {
                    "gold": 1,
                    "silver": 0,
                    "bronze": 1
                }
            },
            {
                "country": "Bulgaria",
                "medals": {
                    "gold": 1,
                    "silver": 0,
                    "bronze": 0
                }
            },
            {
                "country": "France",
                "medals": {
                    "gold": 1,
                    "silver": 0,
                    "bronze": 0
                }
            },
            {
                "country": "Iran",
                "medals": {
                    "gold": 1,
                    "silver": 0,
                    "bronze": 0
                }
            },
            {
                "country": "Serbia",
                "medals": {
                    "gold": 1,
                    "silver": 0,
                    "bronze": 0
                }
            }
        ]
    },
    {
        "sport": "Luge",
        "nations": [
            {
                "country": "Germany",
                "medals": {
                    "gold": 38,
                    "silver": 26,
                    "bronze": 23
                }
            },
            {
                "country": "Italy",
                "medals": {
                    "gold": 7,
                    "silver": 4,
                    "bronze": 7
                }
            },
            {
                "country": "Austria",
                "medals": {
                    "gold": 6,
                    "silver": 10,
                    "bronze": 9
                }
            },
            {
                "country": "Russia",
                "medals": {
                    "gold": 1,
                    "silver": 5,
                    "bronze": 3
                }
            },
            {
                "country": "United States Of America",
                "medals": {
                    "gold": 0,
                    "silver": 3,
                    "bronze": 3
                }
            },
            {
                "country": "Latvia",
                "medals": {
                    "gold": 0,
                    "silver": 1,
                    "bronze": 4
                }
            },
            {
                "country": "Canada",
                "medals": {
                    "gold": 0,
                    "silver": 1,
                    "bronze": 1
                }
            },
            {
                "country": "Russian Olympic Commitee",
                "medals": {
                    "gold": 0,
                    "silver": 0,
                    "bronze": 1
                }
            }
        ]
    },
    {
        "sport": "Modern-pentathlon",
        "nations": [
            {
                "country": "Hungary",
                "medals": {
                    "gold": 9,
                    "silver": 8,
                    "bronze": 6
                }
            },
            {
                "country": "Russia",
                "medals": {
                    "gold": 9,
                    "silver": 7,
                    "bronze": 6
                }
            },
            {
                "country": "Sweden",
                "medals": {
                    "gold": 9,
                    "silver": 7,
                    "bronze": 5
                }
            },
            {
                "country": "Great Britain",
                "medals": {
                    "gold": 4,
                    "silver": 2,
                    "bronze": 3
                }
            },
            {
                "country": "Poland",
                "medals": {
                    "gold": 3,
                    "silver": 0,
                    "bronze": 1
                }
            },
            {
                "country": "Italy",
                "medals": {
                    "gold": 2,
                    "silver": 2,
                    "bronze": 3
                }
            },
            {
                "country": "Germany",
                "medals": {
                    "gold": 2,
                    "silver": 0,
                    "bronze": 1
                }
            },
            {
                "country": "Lithuania",
                "medals": {
                    "gold": 1,
                    "silver": 3,
                    "bronze": 1
                }
            }
        ]
    },
    {
        "sport": "Nordic-combined",
        "nations": [
            {
                "country": "Norway",
                "medals": {
                    "gold": 15,
                    "silver": 12,
                    "bronze": 8
                }
            },
            {
                "country": "Germany",
                "medals": {
                    "gold": 12,
                    "silver": 7,
                    "bronze": 9
                }
            },
            {
                "country": "Finland",
                "medals": {
                    "gold": 4,
                    "silver": 8,
                    "bronze": 2
                }
            },
            {
                "country": "Austria",
                "medals": {
                    "gold": 3,
                    "silver": 2,
                    "bronze": 11
                }
            },
            {
                "country": "Japan",
                "medals": {
                    "gold": 2,
                    "silver": 3,
                    "bronze": 2
                }
            },
            {
                "country": "France",
                "medals": {
                    "gold": 2,
                    "silver": 1,
                    "bronze": 1
                }
            },
            {
                "country": "United States Of America",
                "medals": {
                    "gold": 1,
                    "silver": 3,
                    "bronze": 0
                }
            },
            {
                "country": "Switzerland",
                "medals": {
                    "gold": 1,
                    "silver": 2,
                    "bronze": 1
                }
            }
        ]
    },
    {
        "sport": "Rhythmic-gymnastics",
        "nations": [
            {
                "country": "Russia",
                "medals": {
                    "gold": 12,
                    "silver": 4,
                    "bronze": 4
                }
            },
            {
                "country": "Bulgaria",
                "medals": {
                    "gold": 1,
                    "silver": 2,
                    "bronze": 2
                }
            },
            {
                "country": "Spain",
                "medals": {
                    "gold": 1,
                    "silver": 2,
                    "bronze": 0
                }
            },
            {
                "country": "Ukraine",
                "medals": {
                    "gold": 1,
                    "silver": 0,
                    "bronze": 4
                }
            },
            {
                "country": "Canada",
                "medals": {
                    "gold": 1,
                    "silver": 0,
                    "bronze": 0
                }
            },
            {
                "country": "Israel",
                "medals": {
                    "gold": 1,
                    "silver": 0,
                    "bronze": 0
                }
            },
            {
                "country": "Belarus",
                "medals": {
                    "gold": 0,
                    "silver": 4,
                    "bronze": 3
                }
            },
            {
                "country": "Russian Olympic Commitee",
                "medals": {
                    "gold": 0,
                    "silver": 2,
                    "bronze": 0
                }
            }
        ]
    },
    {
        "sport": "Rowing",
        "nations": [
            {
                "country": "Germany",
                "medals": {
                    "gold": 64,
                    "silver": 31,
                    "bronze": 29
                }
            },
            {
                "country": "United States Of America",
                "medals": {
                    "gold": 33,
                    "silver": 32,
                    "bronze": 24
                }
            },
            {
                "country": "Great Britain",
                "medals": {
                    "gold": 31,
                    "silver": 25,
                    "bronze": 14
                }
            },
            {
                "country": "Romania",
                "medals": {
                    "gold": 20,
                    "silver": 12,
                    "bronze": 9
                }
            },
            {
                "country": "Italy",
                "medals": {
                    "gold": 15,
                    "silver": 15,
                    "bronze": 17
                }
            },
            {
                "country": "New Zealand",
                "medals": {
                    "gold": 14,
                    "silver": 5,
                    "bronze": 10
                }
            },
            {
                "country": "Russia",
                "medals": {
                    "gold": 13,
                    "silver": 20,
                    "bronze": 14
                }
            },
            {
                "country": "Australia",
                "medals": {
                    "gold": 13,
                    "silver": 15,
                    "bronze": 16
                }
            }
        ]
    },
    {
        "sport": "Rugby",
        "nations": [
            {
                "country": "Fiji",
                "medals": {
                    "gold": 2,
                    "silver": 0,
                    "bronze": 1
                }
            },
            {
                "country": "United States Of America",
                "medals": {
                    "gold": 2,
                    "silver": 0,
                    "bronze": 0
                }
            },
            {
                "country": "France",
                "medals": {
                    "gold": 1,
                    "silver": 3,
                    "bronze": 0
                }
            },
            {
                "country": "New Zealand",
                "medals": {
                    "gold": 1,
                    "silver": 2,
                    "bronze": 0
                }
            },
            {
                "country": "Australia",
                "medals": {
                    "gold": 1,
                    "silver": 0,
                    "bronze": 0
                }
            },
            {
                "country": "Australia / New Zealand (australasia)",
                "medals": {
                    "gold": 1,
                    "silver": 0,
                    "bronze": 0
                }
            },
            {
                "country": "Great Britain",
                "medals": {
                    "gold": 0,
                    "silver": 2,
                    "bronze": 1
                }
            },
            {
                "country": "Germany",
                "medals": {
                    "gold": 0,
                    "silver": 1,
                    "bronze": 0
                }
            }
        ]
    },
    {
        "sport": "Sailing",
        "nations": [
            {
                "country": "Great Britain",
                "medals": {
                    "gold": 30,
                    "silver": 21,
                    "bronze": 12
                }
            },
            {
                "country": "United States Of America",
                "medals": {
                    "gold": 19,
                    "silver": 23,
                    "bronze": 19
                }
            },
            {
                "country": "Norway",
                "medals": {
                    "gold": 17,
                    "silver": 11,
                    "bronze": 4
                }
            },
            {
                "country": "France",
                "medals": {
                    "gold": 15,
                    "silver": 14,
                    "bronze": 20
                }
            },
            {
                "country": "Denmark",
                "medals": {
                    "gold": 13,
                    "silver": 9,
                    "bronze": 9
                }
            },
            {
                "country": "Australia",
                "medals": {
                    "gold": 13,
                    "silver": 8,
                    "bronze": 8
                }
            },
            {
                "country": "Spain",
                "medals": {
                    "gold": 13,
                    "silver": 5,
                    "bronze": 3
                }
            },
            {
                "country": "Sweden",
                "medals": {
                    "gold": 10,
                    "silver": 14,
                    "bronze": 13
                }
            }
        ]
    },
    {
        "sport": "Shooting",
        "nations": [
            {
                "country": "United States Of America",
                "medals": {
                    "gold": 57,
                    "silver": 31,
                    "bronze": 28
                }
            },
            {
                "country": "Russia",
                "medals": {
                    "gold": 29,
                    "silver": 31,
                    "bronze": 30
                }
            },
            {
                "country": "China",
                "medals": {
                    "gold": 26,
                    "silver": 16,
                    "bronze": 25
                }
            },
            {
                "country": "Germany",
                "medals": {
                    "gold": 18,
                    "silver": 21,
                    "bronze": 14
                }
            },
            {
                "country": "Italy",
                "medals": {
                    "gold": 16,
                    "silver": 17,
                    "bronze": 11
                }
            },
            {
                "country": "Sweden",
                "medals": {
                    "gold": 15,
                    "silver": 25,
                    "bronze": 19
                }
            },
            {
                "country": "Great Britain",
                "medals": {
                    "gold": 15,
                    "silver": 15,
                    "bronze": 21
                }
            },
            {
                "country": "France",
                "medals": {
                    "gold": 13,
                    "silver": 16,
                    "bronze": 14
                }
            }
        ]
    },
    {
        "sport": "Short-track",
        "nations": [
            {
                "country": "South Korea",
                "medals": {
                    "gold": 26,
                    "silver": 16,
                    "bronze": 11
                }
            },
            {
                "country": "China",
                "medals": {
                    "gold": 12,
                    "silver": 16,
                    "bronze": 9
                }
            },
            {
                "country": "Canada",
                "medals": {
                    "gold": 10,
                    "silver": 13,
                    "bronze": 14
                }
            },
            {
                "country": "United States Of America",
                "medals": {
                    "gold": 4,
                    "silver": 7,
                    "bronze": 9
                }
            },
            {
                "country": "Italy",
                "medals": {
                    "gold": 3,
                    "silver": 6,
                    "bronze": 6
                }
            },
            {
                "country": "Netherlands",
                "medals": {
                    "gold": 3,
                    "silver": 3,
                    "bronze": 3
                }
            },
            {
                "country": "Russia",
                "medals": {
                    "gold": 3,
                    "silver": 1,
                    "bronze": 2
                }
            },
            {
                "country": "Hungary",
                "medals": {
                    "gold": 2,
                    "silver": 0,
                    "bronze": 2
                }
            }
        ]
    },
    {
        "sport": "Skateboarding",
        "nations": [
            {
                "country": "Japan",
                "medals": {
                    "gold": 3,
                    "silver": 1,
                    "bronze": 1
                }
            },
            {
                "country": "Australia",
                "medals": {
                    "gold": 1,
                    "silver": 0,
                    "bronze": 0
                }
            },
            {
                "country": "Brazil",
                "medals": {
                    "gold": 0,
                    "silver": 3,
                    "bronze": 0
                }
            },
            {
                "country": "United States Of America",
                "medals": {
                    "gold": 0,
                    "silver": 0,
                    "bronze": 2
                }
            },
            {
                "country": "Great Britain",
                "medals": {
                    "gold": 0,
                    "silver": 0,
                    "bronze": 1
                }
            }
        ]
    },
    {
        "sport": "Skeleton",
        "nations": [
            {
                "country": "United States Of America",
                "medals": {
                    "gold": 3,
                    "silver": 4,
                    "bronze": 1
                }
            },
            {
                "country": "Great Britain",
                "medals": {
                    "gold": 3,
                    "silver": 1,
                    "bronze": 5
                }
            },
            {
                "country": "Germany",
                "medals": {
                    "gold": 2,
                    "silver": 3,
                    "bronze": 1
                }
            },
            {
                "country": "Canada",
                "medals": {
                    "gold": 2,
                    "silver": 1,
                    "bronze": 1
                }
            },
            {
                "country": "Russia",
                "medals": {
                    "gold": 1,
                    "silver": 0,
                    "bronze": 2
                }
            },
            {
                "country": "Switzerland",
                "medals": {
                    "gold": 1,
                    "silver": 0,
                    "bronze": 2
                }
            },
            {
                "country": "Italy",
                "medals": {
                    "gold": 1,
                    "silver": 0,
                    "bronze": 0
                }
            },
            {
                "country": "South Korea",
                "medals": {
                    "gold": 1,
                    "silver": 0,
                    "bronze": 0
                }
            }
        ]
    },
    {
        "sport": "Ski-jumping",
        "nations": [
            {
                "country": "Norway",
                "medals": {
                    "gold": 12,
                    "silver": 10,
                    "bronze": 14
                }
            },
            {
                "country": "Finland",
                "medals": {
                    "gold": 10,
                    "silver": 8,
                    "bronze": 4
                }
            },
            {
                "country": "Germany",
                "medals": {
                    "gold": 9,
                    "silver": 10,
                    "bronze": 6
                }
            },
            {
                "country": "Austria",
                "medals": {
                    "gold": 7,
                    "silver": 10,
                    "bronze": 10
                }
            },
            {
                "country": "Japan",
                "medals": {
                    "gold": 4,
                    "silver": 6,
                    "bronze": 4
                }
            },
            {
                "country": "Poland",
                "medals": {
                    "gold": 4,
                    "silver": 3,
                    "bronze": 3
                }
            },
            {
                "country": "Switzerland",
                "medals": {
                    "gold": 4,
                    "silver": 1,
                    "bronze": 0
                }
            },
            {
                "country": "Slovenia",
                "medals": {
                    "gold": 2,
                    "silver": 2,
                    "bronze": 3
                }
            }
        ]
    },
    {
        "sport": "Snowboard",
        "nations": [
            {
                "country": "United States Of America",
                "medals": {
                    "gold": 17,
                    "silver": 8,
                    "bronze": 10
                }
            },
            {
                "country": "Switzerland",
                "medals": {
                    "gold": 8,
                    "silver": 2,
                    "bronze": 4
                }
            },
            {
                "country": "Canada",
                "medals": {
                    "gold": 5,
                    "silver": 5,
                    "bronze": 7
                }
            },
            {
                "country": "Austria",
                "medals": {
                    "gold": 5,
                    "silver": 2,
                    "bronze": 4
                }
            },
            {
                "country": "France",
                "medals": {
                    "gold": 4,
                    "silver": 5,
                    "bronze": 4
                }
            },
            {
                "country": "Czech Republic",
                "medals": {
                    "gold": 3,
                    "silver": 0,
                    "bronze": 1
                }
            },
            {
                "country": "Russia",
                "medals": {
                    "gold": 2,
                    "silver": 2,
                    "bronze": 1
                }
            },
            {
                "country": "Germany",
                "medals": {
                    "gold": 1,
                    "silver": 4,
                    "bronze": 2
                }
            }
        ]
    },
    {
        "sport": "Softball",
        "nations": [
            {
                "country": "United States Of America",
                "medals": {
                    "gold": 3,
                    "silver": 2,
                    "bronze": 0
                }
            },
            {
                "country": "Japan",
                "medals": {
                    "gold": 2,
                    "silver": 1,
                    "bronze": 1
                }
            },
            {
                "country": "Australia",
                "medals": {
                    "gold": 0,
                    "silver": 1,
                    "bronze": 3
                }
            },
            {
                "country": "China",
                "medals": {
                    "gold": 0,
                    "silver": 1,
                    "bronze": 0
                }
            },
            {
                "country": "Canada",
                "medals": {
                    "gold": 0,
                    "silver": 0,
                    "bronze": 1
                }
            }
        ]
    },
    {
        "sport": "Speed-skating",
        "nations": [
            {
                "country": "Netherlands",
                "medals": {
                    "gold": 48,
                    "silver": 44,
                    "bronze": 41
                }
            },
            {
                "country": "United States Of America",
                "medals": {
                    "gold": 30,
                    "silver": 22,
                    "bronze": 19
                }
            },
            {
                "country": "Norway",
                "medals": {
                    "gold": 28,
                    "silver": 29,
                    "bronze": 30
                }
            },
            {
                "country": "Russia",
                "medals": {
                    "gold": 27,
                    "silver": 22,
                    "bronze": 24
                }
            },
            {
                "country": "Germany",
                "medals": {
                    "gold": 25,
                    "silver": 28,
                    "bronze": 19
                }
            },
            {
                "country": "Canada",
                "medals": {
                    "gold": 10,
                    "silver": 16,
                    "bronze": 16
                }
            },
            {
                "country": "Sweden",
                "medals": {
                    "gold": 9,
                    "silver": 4,
                    "bronze": 5
                }
            },
            {
                "country": "Finland",
                "medals": {
                    "gold": 7,
                    "silver": 8,
                    "bronze": 9
                }
            }
        ]
    },
    {
        "sport": "Sport-climbing",
        "nations": [
            {
                "country": "Slovenia",
                "medals": {
                    "gold": 1,
                    "silver": 0,
                    "bronze": 0
                }
            },
            {
                "country": "Spain",
                "medals": {
                    "gold": 1,
                    "silver": 0,
                    "bronze": 0
                }
            },
            {
                "country": "Japan",
                "medals": {
                    "gold": 0,
                    "silver": 1,
                    "bronze": 1
                }
            },
            {
                "country": "United States Of America",
                "medals": {
                    "gold": 0,
                    "silver": 1,
                    "bronze": 0
                }
            },
            {
                "country": "Austria",
                "medals": {
                    "gold": 0,
                    "silver": 0,
                    "bronze": 1
                }
            }
        ]
    },
    {
        "sport": "Surfing",
        "nations": [
            {
                "country": "Brazil",
                "medals": {
                    "gold": 1,
                    "silver": 0,
                    "bronze": 0
                }
            },
            {
                "country": "United States Of America",
                "medals": {
                    "gold": 1,
                    "silver": 0,
                    "bronze": 0
                }
            },
            {
                "country": "Japan",
                "medals": {
                    "gold": 0,
                    "silver": 1,
                    "bronze": 1
                }
            },
            {
                "country": "South Africa",
                "medals": {
                    "gold": 0,
                    "silver": 1,
                    "bronze": 0
                }
            },
            {
                "country": "Australia",
                "medals": {
                    "gold": 0,
                    "silver": 0,
                    "bronze": 1
                }
            }
        ]
    },
    {
        "sport": "Swimming",
        "nations": [
            {
                "country": "United States Of America",
                "medals": {
                    "gold": 258,
                    "silver": 182,
                    "bronze": 144
                }
            },
            {
                "country": "Australia",
                "medals": {
                    "gold": 71,
                    "silver": 70,
                    "bronze": 77
                }
            },
            {
                "country": "Germany",
                "medals": {
                    "gold": 56,
                    "silver": 62,
                    "bronze": 73
                }
            },
            {
                "country": "Hungary",
                "medals": {
                    "gold": 30,
                    "silver": 28,
                    "bronze": 20
                }
            },
            {
                "country": "Japan",
                "medals": {
                    "gold": 24,
                    "silver": 27,
                    "bronze": 32
                }
            },
            {
                "country": "Russia",
                "medals": {
                    "gold": 23,
                    "silver": 33,
                    "bronze": 36
                }
            },
            {
                "country": "Netherlands",
                "medals": {
                    "gold": 22,
                    "silver": 21,
                    "bronze": 19
                }
            },
            {
                "country": "Great Britain",
                "medals": {
                    "gold": 21,
                    "silver": 33,
                    "bronze": 33
                }
            }
        ]
    },
    {
        "sport": "Synchronized-swimming",
        "nations": [
            {
                "country": "Russia",
                "medals": {
                    "gold": 10,
                    "silver": 0,
                    "bronze": 0
                }
            },
            {
                "country": "United States Of America",
                "medals": {
                    "gold": 5,
                    "silver": 2,
                    "bronze": 2
                }
            },
            {
                "country": "Canada",
                "medals": {
                    "gold": 3,
                    "silver": 4,
                    "bronze": 1
                }
            },
            {
                "country": "Russian Olympic Commitee",
                "medals": {
                    "gold": 2,
                    "silver": 0,
                    "bronze": 0
                }
            },
            {
                "country": "China",
                "medals": {
                    "gold": 0,
                    "silver": 5,
                    "bronze": 2
                }
            },
            {
                "country": "Japan",
                "medals": {
                    "gold": 0,
                    "silver": 4,
                    "bronze": 10
                }
            },
            {
                "country": "Spain",
                "medals": {
                    "gold": 0,
                    "silver": 3,
                    "bronze": 1
                }
            },
            {
                "country": "Ukraine",
                "medals": {
                    "gold": 0,
                    "silver": 0,
                    "bronze": 2
                }
            }
        ]
    },
    {
        "sport": "Table-tennis",
        "nations": [
            {
                "country": "China",
                "medals": {
                    "gold": 32,
                    "silver": 20,
                    "bronze": 8
                }
            },
            {
                "country": "South Korea",
                "medals": {
                    "gold": 3,
                    "silver": 3,
                    "bronze": 12
                }
            },
            {
                "country": "Japan",
                "medals": {
                    "gold": 1,
                    "silver": 3,
                    "bronze": 4
                }
            },
            {
                "country": "Sweden",
                "medals": {
                    "gold": 1,
                    "silver": 1,
                    "bronze": 1
                }
            },
            {
                "country": "Germany",
                "medals": {
                    "gold": 0,
                    "silver": 4,
                    "bronze": 5
                }
            },
            {
                "country": "North Korea",
                "medals": {
                    "gold": 0,
                    "silver": 1,
                    "bronze": 3
                }
            },
            {
                "country": "Chinese Taipei",
                "medals": {
                    "gold": 0,
                    "silver": 1,
                    "bronze": 2
                }
            },
            {
                "country": "Singapore",
                "medals": {
                    "gold": 0,
                    "silver": 1,
                    "bronze": 2
                }
            }
        ]
    },
    {
        "sport": "Taekwondo",
        "nations": [
            {
                "country": "South Korea",
                "medals": {
                    "gold": 12,
                    "silver": 3,
                    "bronze": 7
                }
            },
            {
                "country": "China",
                "medals": {
                    "gold": 7,
                    "silver": 1,
                    "bronze": 3
                }
            },
            {
                "country": "United States Of America",
                "medals": {
                    "gold": 3,
                    "silver": 2,
                    "bronze": 5
                }
            },
            {
                "country": "Great Britain",
                "medals": {
                    "gold": 2,
                    "silver": 3,
                    "bronze": 4
                }
            },
            {
                "country": "Mexico",
                "medals": {
                    "gold": 2,
                    "silver": 2,
                    "bronze": 3
                }
            },
            {
                "country": "Chinese Taipei",
                "medals": {
                    "gold": 2,
                    "silver": 1,
                    "bronze": 6
                }
            },
            {
                "country": "Iran",
                "medals": {
                    "gold": 2,
                    "silver": 1,
                    "bronze": 3
                }
            },
            {
                "country": "Italy",
                "medals": {
                    "gold": 2,
                    "silver": 1,
                    "bronze": 1
                }
            }
        ]
    },
    {
        "sport": "Tennis",
        "nations": [
            {
                "country": "United States Of America",
                "medals": {
                    "gold": 21,
                    "silver": 6,
                    "bronze": 12
                }
            },
            {
                "country": "Great Britain",
                "medals": {
                    "gold": 16,
                    "silver": 14,
                    "bronze": 12
                }
            },
            {
                "country": "France",
                "medals": {
                    "gold": 8,
                    "silver": 7,
                    "bronze": 8
                }
            },
            {
                "country": "Germany",
                "medals": {
                    "gold": 4,
                    "silver": 6,
                    "bronze": 3
                }
            },
            {
                "country": "Russia",
                "medals": {
                    "gold": 3,
                    "silver": 3,
                    "bronze": 4
                }
            },
            {
                "country": "Switzerland",
                "medals": {
                    "gold": 3,
                    "silver": 3,
                    "bronze": 0
                }
            },
            {
                "country": "South Africa",
                "medals": {
                    "gold": 3,
                    "silver": 2,
                    "bronze": 1
                }
            },
            {
                "country": "Spain",
                "medals": {
                    "gold": 2,
                    "silver": 7,
                    "bronze": 4
                }
            }
        ]
    },
    {
        "sport": "Trampolining",
        "nations": [
            {
                "country": "China",
                "medals": {
                    "gold": 4,
                    "silver": 4,
                    "bronze": 6
                }
            },
            {
                "country": "Canada",
                "medals": {
                    "gold": 2,
                    "silver": 3,
                    "bronze": 2
                }
            },
            {
                "country": "Russia",
                "medals": {
                    "gold": 2,
                    "silver": 2,
                    "bronze": 0
                }
            },
            {
                "country": "Belarus",
                "medals": {
                    "gold": 2,
                    "silver": 0,
                    "bronze": 0
                }
            },
            {
                "country": "Ukraine",
                "medals": {
                    "gold": 1,
                    "silver": 1,
                    "bronze": 0
                }
            },
            {
                "country": "Germany",
                "medals": {
                    "gold": 1,
                    "silver": 0,
                    "bronze": 1
                }
            },
            {
                "country": "Great Britain",
                "medals": {
                    "gold": 0,
                    "silver": 1,
                    "bronze": 1
                }
            },
            {
                "country": "Australia",
                "medals": {
                    "gold": 0,
                    "silver": 1,
                    "bronze": 0
                }
            }
        ]
    },
    {
        "sport": "Triathlon",
        "nations": [
            {
                "country": "Great Britain",
                "medals": {
                    "gold": 3,
                    "silver": 3,
                    "bronze": 2
                }
            },
            {
                "country": "Switzerland",
                "medals": {
                    "gold": 2,
                    "silver": 1,
                    "bronze": 2
                }
            },
            {
                "country": "Australia",
                "medals": {
                    "gold": 1,
                    "silver": 2,
                    "bronze": 2
                }
            },
            {
                "country": "New Zealand",
                "medals": {
                    "gold": 1,
                    "silver": 1,
                    "bronze": 2
                }
            },
            {
                "country": "United States Of America",
                "medals": {
                    "gold": 1,
                    "silver": 1,
                    "bronze": 2
                }
            },
            {
                "country": "Canada",
                "medals": {
                    "gold": 1,
                    "silver": 1,
                    "bronze": 0
                }
            },
            {
                "country": "Germany",
                "medals": {
                    "gold": 1,
                    "silver": 1,
                    "bronze": 0
                }
            },
            {
                "country": "Austria",
                "medals": {
                    "gold": 1,
                    "silver": 0,
                    "bronze": 0
                }
            }
        ]
    },
    {
        "sport": "Tug-of-war",
        "nations": [
            {
                "country": "Great Britain",
                "medals": {
                    "gold": 2,
                    "silver": 2,
                    "bronze": 1
                }
            },
            {
                "country": "United States Of America",
                "medals": {
                    "gold": 1,
                    "silver": 1,
                    "bronze": 0
                }
            },
            {
                "country": "Sweden",
                "medals": {
                    "gold": 1,
                    "silver": 0,
                    "bronze": 1
                }
            },
            {
                "country": "Germany",
                "medals": {
                    "gold": 1,
                    "silver": 0,
                    "bronze": 0
                }
            },
            {
                "country": "Sweden / Denmark",
                "medals": {
                    "gold": 1,
                    "silver": 0,
                    "bronze": 0
                }
            },
            {
                "country": "France",
                "medals": {
                    "gold": 0,
                    "silver": 1,
                    "bronze": 0
                }
            },
            {
                "country": "Greece",
                "medals": {
                    "gold": 0,
                    "silver": 1,
                    "bronze": 0
                }
            },
            {
                "country": "Netherlands",
                "medals": {
                    "gold": 0,
                    "silver": 1,
                    "bronze": 0
                }
            }
        ]
    },
    {
        "sport": "Volleyball",
        "nations": [
            {
                "country": "Russia",
                "medals": {
                    "gold": 8,
                    "silver": 8,
                    "bronze": 3
                }
            },
            {
                "country": "Brazil",
                "medals": {
                    "gold": 5,
                    "silver": 4,
                    "bronze": 2
                }
            },
            {
                "country": "United States Of America",
                "medals": {
                    "gold": 4,
                    "silver": 3,
                    "bronze": 4
                }
            },
            {
                "country": "Japan",
                "medals": {
                    "gold": 3,
                    "silver": 3,
                    "bronze": 3
                }
            },
            {
                "country": "China",
                "medals": {
                    "gold": 3,
                    "silver": 1,
                    "bronze": 2
                }
            },
            {
                "country": "Cuba",
                "medals": {
                    "gold": 3,
                    "silver": 0,
                    "bronze": 2
                }
            },
            {
                "country": "Netherlands",
                "medals": {
                    "gold": 1,
                    "silver": 1,
                    "bronze": 0
                }
            },
            {
                "country": "Poland",
                "medals": {
                    "gold": 1,
                    "silver": 0,
                    "bronze": 2
                }
            }
        ]
    },
    {
        "sport": "Water-polo",
        "nations": [
            {
                "country": "Hungary",
                "medals": {
                    "gold": 9,
                    "silver": 3,
                    "bronze": 5
                }
            },
            {
                "country": "United States Of America",
                "medals": {
                    "gold": 4,
                    "silver": 6,
                    "bronze": 5
                }
            },
            {
                "country": "Italy",
                "medals": {
                    "gold": 4,
                    "silver": 3,
                    "bronze": 3
                }
            },
            {
                "country": "Great Britain",
                "medals": {
                    "gold": 4,
                    "silver": 0,
                    "bronze": 0
                }
            },
            {
                "country": "Yugoslavia",
                "medals": {
                    "gold": 3,
                    "silver": 4,
                    "bronze": 1
                }
            },
            {
                "country": "Russia",
                "medals": {
                    "gold": 2,
                    "silver": 3,
                    "bronze": 7
                }
            },
            {
                "country": "Serbia",
                "medals": {
                    "gold": 2,
                    "silver": 0,
                    "bronze": 2
                }
            },
            {
                "country": "Spain",
                "medals": {
                    "gold": 1,
                    "silver": 3,
                    "bronze": 0
                }
            }
        ]
    },
    {
        "sport": "Weightlifting",
        "nations": [
            {
                "country": "Russia",
                "medals": {
                    "gold": 48,
                    "silver": 32,
                    "bronze": 8
                }
            },
            {
                "country": "China",
                "medals": {
                    "gold": 38,
                    "silver": 16,
                    "bronze": 8
                }
            },
            {
                "country": "United States Of America",
                "medals": {
                    "gold": 16,
                    "silver": 17,
                    "bronze": 11
                }
            },
            {
                "country": "Bulgaria",
                "medals": {
                    "gold": 12,
                    "silver": 17,
                    "bronze": 8
                }
            },
            {
                "country": "Germany",
                "medals": {
                    "gold": 9,
                    "silver": 13,
                    "bronze": 21
                }
            },
            {
                "country": "Iran",
                "medals": {
                    "gold": 9,
                    "silver": 7,
                    "bronze": 5
                }
            },
            {
                "country": "France",
                "medals": {
                    "gold": 9,
                    "silver": 3,
                    "bronze": 4
                }
            },
            {
                "country": "Turkey",
                "medals": {
                    "gold": 8,
                    "silver": 1,
                    "bronze": 2
                }
            }
        ]
    },
    {
        "sport": "Wrestling",
        "nations": [
            {
                "country": "Russia",
                "medals": {
                    "gold": 99,
                    "silver": 51,
                    "bronze": 42
                }
            },
            {
                "country": "United States Of America",
                "medals": {
                    "gold": 57,
                    "silver": 44,
                    "bronze": 40
                }
            },
            {
                "country": "Japan",
                "medals": {
                    "gold": 37,
                    "silver": 22,
                    "bronze": 17
                }
            },
            {
                "country": "Turkey",
                "medals": {
                    "gold": 29,
                    "silver": 18,
                    "bronze": 19
                }
            },
            {
                "country": "Sweden",
                "medals": {
                    "gold": 28,
                    "silver": 27,
                    "bronze": 31
                }
            },
            {
                "country": "Finland",
                "medals": {
                    "gold": 27,
                    "silver": 29,
                    "bronze": 29
                }
            },
            {
                "country": "Hungary",
                "medals": {
                    "gold": 20,
                    "silver": 17,
                    "bronze": 20
                }
            },
            {
                "country": "Bulgaria",
                "medals": {
                    "gold": 16,
                    "silver": 32,
                    "bronze": 23
                }
            }
        ]
    }
]